American Slavery and Juneteenth
…
slave_routes <- tuesdata$slave_routes

slave_routes %>%
  summarize(sum(n_slaves_arrived, na.rm = T))

## # A tibble: 1 x 1
##   `sum(n_slaves_arrived, na.rm = T)`
##                                <dbl>
## 1                            5063299

## count of ship names
slave_routes %>%
  count(ship_name, sort = T)

## # A tibble: 9,448 x 2
##    ship_name                             n
##    <chr>                             <int>
##  1 <NA>                               1636
##  2 Mary                                254
##  3 Nancy                               197
##  4 NS do Rosario S Antnio e Almas     182
##  5 NS da Conceio S Antnio e Almas   175
##  6 Africa                              144
##  7 NS del Rosario                      133
##  8 Elizabeth                           123
##  9 S Antnio                           123
## 10 Sally                               113
## #  with 9,438 more rows
…
# Port of arrival and Port origin
slave_routes %>%
  count(port_arrival, sort = T)

## # A tibble: 274 x 2
##    port_arrival                     n
##    <chr>                        <int>
##  1 <NA>                          4264
##  2 Bahia, port unspecified       4223
##  3 Rio de Janeiro                2887
##  4 Barbados, port unspecified    2038
##  5 Jamaica, port unspecified     1715
##  6 Kingston                      1622
##  7 Pernambuco, port unspecified  1335
##  8 Havana                        1321
##  9 Cap Francais                  1127
## 10 Charleston                     811
## #  with 264 more rows

slave_routes %>%
  count(port_origin, sort = T)

## # A tibble: 244 x 2
##    port_origin                            n
##    <chr>                              <int>
##  1 Liverpool                           4973
##  2 Bahia, port unspecified             4478
##  3 <NA>                                4464
##  4 London                              3126
##  5 Rio de Janeiro                      2545
##  6 Bristol                             2083
##  7 Nantes                              1731
##  8 Pernambuco, port unspecified        1310
##  9 Havana                              1146
## 10 Southeast Brazil, port unspecified  1126
## #  with 234 more rows
…
# almost half the data is missing

slave_routes %>%
  group_by(port_origin) %>%
  summarize(n_ships = n(),
            total_recorded = sum(n_slaves_arrived, na.rm = T),
            pct_missing = mean(is.na(n_slaves_arrived)),
            estimated_total = mean(n_slaves_arrived, na.rm = T)*n())  %>%
  arrange(desc(n_ships))

## `summarise()` ungrouping output (override with `.groups` argument)

## # A tibble: 244 x 5
##    port_origin                n_ships total_recorded pct_missing estimated_total
##    <chr>                        <int>          <dbl>       <dbl>           <dbl>
##  1 Liverpool                     4973         832427       0.353        1285609.
##  2 Bahia, port unspecified       4478         572381       0.595        1412967.
##  3 <NA>                          4464         467327       0.538        1011711.
##  4 London                        3126         447398       0.411         760090.
##  5 Rio de Janeiro                2545         639642       0.425        1111946.
##  6 Bristol                       2083         254042       0.494         502535.
##  7 Nantes                        1731         263552       0.450         479211.
##  8 Pernambuco, port unspecif    1310          83078       0.785         387303.
##  9 Havana                        1146         154034       0.537         332435.
## 10 Southeast Brazil, port un    1126         276512       0.376         442891.
## #  with 234 more rows
…
