Volcano Eruptions
…
## See spec(...) for full column specifications.

# eruptions <- readr::read_csv('https://raw.githubusercontent.com/rfordatascience/tidytuesday/master/data/2020/2020-05-12/eruptions.csv')
# events <- readr::read_csv('https://raw.githubusercontent.com/rfordatascience/tidytuesday/master/data/2020/2020-05-12/events.csv')
# tree_rings <- readr::read_csv('https://raw.githubusercontent.com/rfordatascience/tidytuesday/master/data/2020/2020-05-12/tree_rings.csv')
# sulfur <- readr::read_csv('https://raw.githubusercontent.com/rfordatascience/tidytuesday/master/data/2020/2020-05-12/sulfur.csv')

volcano_raw %>%
  count(primary_volcano_type, sort = T)

## # A tibble: 26 x 2
##    primary_volcano_type     n
##    <chr>                <int>
##  1 Stratovolcano          353
##  2 Stratovolcano(es)      107
##  3 Shield                  85
##  4 Volcanic field          71
##  5 Pyroclastic cone(s)     70
##  6 Caldera                 65
##  7 Complex                 46
##  8 Shield(s)               33
##  9 Submarine               27
## 10 Lava dome(s)            26
## #  with 16 more rows
…
##  Conflicts  tidymodels_conflicts() 
## x scales::discard() masks purrr::discard()
## x dplyr::filter()   masks stats::filter()
## x recipes::fixed()  masks stringr::fixed()
## x dplyr::lag()      masks stats::lag()
## x dials::margin()   masks ggplot2::margin()
## x yardstick::spec() masks readr::spec()
## x recipes::step()   masks stats::step()

# due to the small size of the data we are going to a create a boostrap
volcano_boot <- bootstraps(volcano_df) # create 25 bootstrap samples
volcano_boot

## # Bootstrap sampling 
## # A tibble: 25 x 2
##    splits            id         
##    <list>            <chr>      
##  1 <split [958/353]> Bootstrap01
##  2 <split [958/375]> Bootstrap02
##  3 <split [958/369]> Bootstrap03
##  4 <split [958/361]> Bootstrap04
##  5 <split [958/359]> Bootstrap05
##  6 <split [958/337]> Bootstrap06
##  7 <split [958/356]> Bootstrap07
##  8 <split [958/366]> Bootstrap08
##  9 <split [958/358]> Bootstrap09
## 10 <split [958/364]> Bootstrap10
## #  with 15 more rows
…
volcano_res %>%
  collect_predictions() %>%
  ppv(volcano_type, .pred_class) # positive predicted values

## # A tibble: 1 x 3
##   .metric .estimator .estimate
##   <chr>   <chr>          <dbl>
## 1 ppv     macro          0.622

volcano_res %>%
  collect_predictions() %>%
  group_by(id) %>%
  ppv(volcano_type, .pred_class) # positive predicted values

## # A tibble: 25 x 4
##    id          .metric .estimator .estimate
##    <chr>       <chr>   <chr>          <dbl>
##  1 Bootstrap01 ppv     macro          0.603
##  2 Bootstrap02 ppv     macro          0.625
##  3 Bootstrap03 ppv     macro          0.620
##  4 Bootstrap04 ppv     macro          0.692
##  5 Bootstrap05 ppv     macro          0.602
##  6 Bootstrap06 ppv     macro          0.600
##  7 Bootstrap07 ppv     macro          0.664
##  8 Bootstrap08 ppv     macro          0.580
##  9 Bootstrap09 ppv     macro          0.582
## 10 Bootstrap10 ppv     macro          0.618
## #  with 15 more rows
…
volcano_pred <- volcano_res %>%
  collect_predictions() %>%
  mutate(correct = volcano_type == .pred_class)  %>%
  left_join(volcano_df %>% 
              mutate(.row = row_number()))

## Joining, by = c(".row", "volcano_type")

volcano_pred

## # A tibble: 8,861 x 14
##    id    .pred_Other .pred_Shield .pred_Stratovol  .row .pred_class
##    <chr>       <dbl>        <dbl>            <dbl> <int> <fct>      
##  1 Boot       0.552       0.0997            0.348     4 Other      
##  2 Boot       0.152       0.0731            0.775     7 Stratovolc
##  3 Boot       0.131       0.0332            0.836    13 Stratovolc
##  4 Boot       0.875       0.0123            0.112    14 Other      
##  5 Boot       0.378       0.185             0.437    15 Stratovolc
##  6 Boot       0.331       0.154             0.515    16 Stratovolc
##  7 Boot       0.268       0.0830            0.649    18 Stratovolc
##  8 Boot       0.345       0.0768            0.578    20 Stratovolc
##  9 Boot       0.525       0.0289            0.446    21 Other      
## 10 Boot       0.126       0.424             0.449    22 Stratovolc
## #  with 8,851 more rows, and 8 more variables: volcano_type <fct>,
## #   correct <lgl>, volcano_number <dbl>, latitude <dbl>, longitude <dbl>,
## #   elevation <dbl>, tectonic_settings <fct>, major_rock_1 <fct>
…
